2021-08-16 05:29:07 [ERROR]: log level: info
2021-08-16 05:29:07 [INFO]: Retrieving AWS endpoint data
2021-08-16 05:29:07 [INFO]: OS:  Linux x64 5.4.0-1054-aws
2021-08-16 05:29:07 [INFO]: AWS Cloud9 Extension Host Version:  1.42.0AWS Toolkit Version:  1.27.0-6c4644db65c7
2021-08-16 05:34:08 [INFO]: Successfully sent a telemetry batch of 4
